{
  "name": "frontend",
  "version": "0.1.0",
  "private": true,
  "dependencies": {
    "@fortawesome/fontawesome-svg-core": "^1.2.29",
    "@fortawesome/free-solid-svg-icons": "^5.13.1",
    "@fortawesome/react-fontawesome": "^0.1.11",
    "@material-ui/core": "^4.11.0",
    "@material-ui/icons": "^4.9.1",
    "@testing-library/jest-dom": "^4.2.4",
    "@testing-library/react": "^9.3.2",
    "@testing-library/user-event": "^7.1.2",
    "axios": "^0.19.2",
    "bootstrap": "^4.5.0",
    "chart.js": "^2.9.3",
    "classnames": "^2.2.6",
    "history": "^5.0.0",
    "interweave": "^12.5.0",
    "jquery": "^3.5.1",
    "mdbreact": "^4.27.0",
    "popper": "^1.0.1",
    "prop-types": "^15.7.2",
    "react": "^16.13.1",
    "react-bootstrap": "^1.2.2",
    "react-chartjs-2": "^2.10.0",
    "react-dom": "^16.13.1",
    "react-quill": "^1.3.5",
    "react-redux": "^7.2.0",
    "react-router-dom": "^5.2.0",
    "react-scripts": "^3.4.2",
    "react-table": "^7.5.0",
    "react-validation": "^3.0.7",
    "redux": "^4.0.5",
    "redux-thunk": "^2.3.0",
    "validator": "^13.1.1"
  },
  "scripts": {
    "start": "react-scripts start",
    "build": "react-scripts build",
    "test": "react-scripts test",
    "eject": "react-scripts eject"
  },
  "eslintConfig": {
    "extends": "react-app"
  },
  "browserslist": {
    "production": [
      ">0.2%",
      "not dead",
      "not op_mini all"
    ],
    "development": [
      "last 1 chrome version",
      "last 1 firefox version",
      "last 1 safari version"
    ]
  }
  ,"homepage": "https://ppid.kkppadang.id/ppid"
}
